ISSS608-VAA - Take Home_Ex02
…
Harmonized System (HS) codes are the identification codes given to goods for use in international trade. The HS codes are administered by the World Customs Organization (WCO) and are internationally accepted for use by customs authorities and companies to identify goods.

Since we are doing an analysis on the fishing industry, we have to first filter those hscodes that are fishing industry related products.

mc2_edges_aggregated <- MC2_edges %>%
  filter(grepl("^30[1-8]|^2301|^160[4-5]|^1212|^1302|^1504|^151610|^151790", hscode)) %>% # filter out only those hscode that are fishing industry related products 
  group_by(source, target, hscode, Year) %>%
    summarise(weights = n(), median_weight = median(weightkg)) %>%
  filter(source!=target) %>%
  filter(weights>10) %>%
  ungroup()
mc2_edges_aggregated

# A tibble: 12,408 × 6
   source                              target hscode  Year weights median_weight
   <chr>                               <chr>  <chr>  <dbl>   <int>         <dbl>
 1 " Direct Herring Company Transit"   Estre… 306170  2031      12        21078.
 2 "1 Limited Liability Company"       Olas … 303630  2034      28        19830 
 3 "1 Limited Liability Company Trans… Selou… 160414  2030      12         9985 
 4 "1 Limited Liability Company Trans… Selou… 160414  2031      21         8815 
 5 "1 Limited Liability Company Trans… Selou… 160414  2032      16         6908.
 6 "1 Limited Liability Company Trans… Selou… 160414  2033      54         6922.
 7 "1 Limited Liability Company Trans… Selou… 160414  2034      28         6545 
 8 "1 Ltd. Liability Co Cargo"         Himac… 306170  2028      68        10095 
 9 "1 Ltd. Liability Co Cargo"         Himac… 306170  2029      59        19205 
10 "1 Ltd. Liability Co Cargo"         Himac… 306170  2030      26        17708.
# ℹ 12,398 more rows
…
3.3.8 Building the tidygraph model

The code chunk below is then used to build the tidy graph data model.

mc2_graph <- tbl_graph(nodes = mc2_nodes_extracted_aggregated,
                       edges = mc2_edges_aggregated_top,
                       directed = TRUE)
mc2_graph

# A tbl_graph: 930 nodes and 4670 edges
#
# A directed acyclic multigraph with 27 components
#
# A tibble: 930 × 3
  id                                                shpcountry rcvcountry 
  <chr>                                             <chr>      <chr>      
1 " Direct Herring Company Transit"                 Mawazam    Coralmarica
2 "1 Limited Liability Company Transport"           Kondanovia Oceanus    
3 "1 Ltd. Liability Co Cargo"                       Mawandia   <NA>       
4 "6 Ltd. Liability Co Transportation"              Marebak    Oceanus    
5 "8 Aquamarine Limited Liability Company Holdings" Marebak    Oceanus    
6 "9 Marine biology Ltd Family"                     Mawazam    <NA>       
# ℹ 924 more rows
#
# A tibble: 4,670 × 6
   from    to hscode  Year weights median_weight
  <int> <int> <chr>  <dbl>   <int>         <dbl>
1     1   543 306170  2031      12        21078.
2     2   544 160414  2030      12         9985 
3     2   544 160414  2031      21         8815 
# ℹ 4,667 more rows
…
# A tbl_graph: 930 nodes and 4670 edges
#
# A directed acyclic multigraph with 27 components
#
# A tibble: 930 × 8
  id            shpcountry rcvcountry in_degree_centrality out_degree_centrality
  <chr>         <chr>      <chr>                     <dbl>                 <dbl>
1 "Mar del Est… Merigrad   Oceanus                     400                     0
2 "Caracola de… Puerto Sol Oceanus                     363                     0
3 "hǎi dǎn Cor… Marebak    Oceanus                     337                     0
4 "Costa de la… Alverossia Oceanus                     181                     0
5 "Blue Horizo… Osterivar… <NA>                          0                   108
6 "Sea Breezes… Isliandor  Coralmari…                    0                   117
# ℹ 924 more rows
# ℹ 3 more variables: degree_centrality <dbl>, eigen_centrality <dbl>,
#   combined_centrality <dbl>
#
# A tibble: 4,670 × 6
   from    to hscode  Year weights median_weight
  <int> <int> <chr>  <dbl>   <int>         <dbl>
1   788   158 306170  2031      12        21078.
2   279     7 160414  2030      12         9985 
3   279     7 160414  2031      21         8815 
# ℹ 4,667 more rows
…
