ISSS608-VAA - Take-Home_Ex01
…
# Pivot the table so that the categories appear as columns
new_financial_wide <- new_financial %>% 
  pivot_wider(names_from = category, values_from = total_amount)
new_financial_wide

# A tibble: 10,691 × 8
# Groups:   participantId, month_year [10,691]
   participantId month_year Education  Food Recreation Shelter   Wage
   <chr>         <date>         <dbl> <dbl>      <dbl>   <dbl>  <dbl>
 1 0             2022-03-01     -38.0 -268.     -349.    -555. 11932.
 2 0             2022-04-01     -38.0 -266.     -219.    -555.  8637.
 3 0             2022-05-01     -38.0 -265.     -383.    -555.  9048.
 4 0             2022-06-01     -38.0 -257.     -466.    -555.  9048.
 5 0             2022-07-01     -38.0 -270.    -1070.    -555.  8637.
 6 0             2022-08-01     -38.0 -262.     -314.    -555.  9459.
 7 0             2022-09-01     -38.0 -256.     -295.    -555.  9048.
 8 0             2022-10-01     -38.0 -267.      -25.0   -555.  8637.
 9 0             2022-11-01     -38.0 -261.     -377.    -555.  9048.
10 0             2022-12-01     -38.0 -266.     -357.    -555.  9048.
# ℹ 10,681 more rows
# ℹ 1 more variable: RentAdjustment <dbl>

# Check if any columns has missing value 
colSums(is.na(new_financial_wide))

 participantId     month_year      Education           Food     Recreation 
             0              0           7673              0           1199 
       Shelter           Wage RentAdjustment 
           131              0          10619 

# replace missing values with 0
new_financial_wide <- new_financial_wide %>% 
  mutate_all(~replace_na(., 0))
new_financial_wide

# A tibble: 10,691 × 8
# Groups:   participantId, month_year [10,691]
   participantId month_year Education  Food Recreation Shelter   Wage
   <chr>         <date>         <dbl> <dbl>      <dbl>   <dbl>  <dbl>
 1 0             2022-03-01     -38.0 -268.     -349.    -555. 11932.
 2 0             2022-04-01     -38.0 -266.     -219.    -555.  8637.
 3 0             2022-05-01     -38.0 -265.     -383.    -555.  9048.
 4 0             2022-06-01     -38.0 -257.     -466.    -555.  9048.
 5 0             2022-07-01     -38.0 -270.    -1070.    -555.  8637.
 6 0             2022-08-01     -38.0 -262.     -314.    -555.  9459.
 7 0             2022-09-01     -38.0 -256.     -295.    -555.  9048.
 8 0             2022-10-01     -38.0 -267.      -25.0   -555.  8637.
 9 0             2022-11-01     -38.0 -261.     -377.    -555.  9048.
10 0             2022-12-01     -38.0 -266.     -357.    -555.  9048.
# ℹ 10,681 more rows
# ℹ 1 more variable: RentAdjustment <dbl>

ISSUE 5: DATA DOES NOT SHOW FINANCIAL HEALTH AND COST OF LIVING

Financial Health = Sum (Wage + Education + Shelter + Recreation + Food + RentAdjustment)

new_financial_wide$Financial_health <- rowSums(new_financial_wide[, c("Wage", "Education","Shelter","Recreation","Food","RentAdjustment" )], na.rm = TRUE)
new_financial_wide

# A tibble: 10,691 × 9
# Groups:   participantId, month_year [10,691]
   participantId month_year Education  Food Recreation Shelter   Wage
   <chr>         <date>         <dbl> <dbl>      <dbl>   <dbl>  <dbl>
 1 0             2022-03-01     -38.0 -268.     -349.    -555. 11932.
 2 0             2022-04-01     -38.0 -266.     -219.    -555.  8637.
 3 0             2022-05-01     -38.0 -265.     -383.    -555.  9048.
 4 0             2022-06-01     -38.0 -257.     -466.    -555.  9048.
 5 0             2022-07-01     -38.0 -270.    -1070.    -555.  8637.
 6 0             2022-08-01     -38.0 -262.     -314.    -555.  9459.
 7 0             2022-09-01     -38.0 -256.     -295.    -555.  9048.
 8 0             2022-10-01     -38.0 -267.      -25.0   -555.  8637.
 9 0             2022-11-01     -38.0 -261.     -377.    -555.  9048.
10 0             2022-12-01     -38.0 -266.     -357.    -555.  9048.
# ℹ 10,681 more rows
# ℹ 2 more variables: RentAdjustment <dbl>, Financial_health <dbl>
…
The shape of the wage distribution shows that there is an income inequality in the city.

meanwage_table <- combined_table %>%
  group_by(participantId) %>%
  summarize(mean_wage = mean(Wage))
meanwage_table

# A tibble: 1,011 × 2
   participantId mean_wage
   <chr>             <dbl>
 1 0                 9151.
 2 1                 8031.
 3 10                6609.
 4 100               3910.
 5 1000              2441.
 6 1001              3853.
 7 1002              2315.
 8 1003              1944.
 9 1004              2334.
10 1005              2835.
# ℹ 1,001 more rows
…
